Course 2 Section 1.11 - Your turn
…
Q1: How many distinct agencies (space launch providers) are in the data set agencies?

# 1. Check if each row in agencies is distinct (should return same data)
agencies %>%
  distinct()

## # A tibble: 74 x 19
##    agency count ucode state_code type  class tstart tstop short_name name 
##    <chr>  <dbl> <chr> <chr>      <chr> <chr> <chr>  <chr> <chr>      <chr>
##  1 RVSN    1528 RVSN  SU         O/LA  D     1960   1991 RVSN       Rake
##  2 UNKS     904 GUKOS SU         O/LA  D     1986  1991  UNKS       Upra
##  3 NASA     469 NASA  US         O/LA C     1958  -     NASA       Nati
##  4 USAF     388 USAF  US         O/LA D     1947  -     USAF       Unit
##  5 AE       258 AE    F          O/LA  B     1980  *     Arianespa Aria
##  6 AFSC     247 AFSC  US         LA    D     1961  1992 AFSC       US A
##  7 VKSR     200 GUKOS RU         O/LA  D     1997  2001 VKS RVSN   Voen
##  8 CALT     181 CALT  CN         LA/L C     1957  -     CALT       Zhon
##  9 FKA      128 MOM   RU         O/LA  C     2004   2016 Roskosmos  Fede
## 10 SAST     105 SBA   CN         O/LA B     1993   -     SAST       Shan
## #  with 64 more rows, and 9 more variables: location <chr>, longitude <chr>,
## #   latitude <chr>, error <chr>, parent <chr>, short_english_name <chr>,
## #   english_name <chr>, unicode_name <chr>, agency_type <chr>

Q2: Which variable in agencies uniquely describes each agency?

# 2. Variable that uniquely describes each space launch providers 
agencies %>%
  distinct(agency)

## # A tibble: 74 x 1
##    agency
##    <chr> 
##  1 RVSN  
##  2 UNKS  
##  3 NASA  
##  4 USAF  
##  5 AE    
##  6 AFSC  
##  7 VKSR  
##  8 CALT  
##  9 FKA   
## 10 SAST  
## #  with 64 more rows

"agency" varaible return the same number of row, it mean the "agency" varaible uniquely describes each agency.

Q3: Is there an agency that has more than one organisation phase code? If so, which agency?

# 3. Compare with above to see if there is an agency with more than one org phase code
agencies %>%
  distinct(ucode)

## # A tibble: 62 x 1
##    ucode
##    <chr>
##  1 RVSN 
##  2 GUKOS
##  3 NASA 
##  4 USAF 
##  5 AE   
##  6 AFSC 
##  7 CALT 
##  8 MOM  
##  9 SBA  
## 10 ILSK 
## #  with 52 more rows

Variable "agency" is the org phase code

Q4: Why might an agency have more than one organisation phase code?

# 4. Number of distinct agency code for each agency name
agencies %>%
  group_by(name) %>%
  summarise(num_agency_code = n_distinct(agency)) %>%
  ungroup() %>%
  arrange(desc(num_agency_code))

## # A tibble: 73 x 2
##    name                                                          num_agency_code
##    <chr>                                                                   <int>
##  1 Sea Launch Limited Partnership                                              2
##  2 Agencia Espacial Brasileira                                                 1
##  3 Arianespace, Inc.                                                           1
##  4 Boeing Launch Services (?)                                                  1
##  5 Boeing/USAF 2SLS                                                            1
##  6 Centre Europeene de Construct. de Lanceurs et d'Engins Spati               1
##  7 Centre Nationale d'Etudes Spatiales, Paris                                  1
##  8 Centro Richerchi Aerospaziale, Roma la Sapienza                             1
##  9 Di Er Paobing Budui, Zhongguo Renmin Jeifangjun                             1
## 10 EER Systems Inc. Aerospace Div.                                             1
## #  with 63 more rows
…
Step 3: Joining tables together

obtain the number of agencies that provided a space launch.

Join agencies to launches

# Left join agencies to launches
launches_agencies <- left_join(launches, agencies, by = "agency")

# Print launches_agencies
launches_agencies

## # A tibble: 5,726 x 29
##    tag       JD launch_date launch_year type.x variant mission agency
##    <chr>  <dbl> <date>            <dbl> <chr>  <chr>   <chr>   <chr> 
##  1 1967 2.44e6 1967-06-29         1967 Thor  <NA>    Secor  US    
##  2 1967 2.44e6 1967-08-23         1967 Thor  <NA>    DAPP 3 US    
##  3 1967 2.44e6 1967-10-11         1967 Thor  <NA>    DAPP 4 US    
##  4 1968 2.44e6 1968-05-23         1968 Thor  <NA>    DAPP 5 US    
##  5 1968 2.44e6 1968-10-23         1968 Thor  <NA>    DAPP 6 US    
##  6 1969 2.44e6 1969-07-23         1969 Thor  <NA>    DAPP 7 US    
##  7 1970 2.44e6 1970-02-11         1970 Thor  <NA>    DAPP B US    
##  8 1970 2.44e6 1970-09-03         1970 Thor  <NA>    DAPP B US    
##  9 1971 2.44e6 1971-02-17         1971 Thor  <NA>    DAPP B US    
## 10 1971 2.44e6 1971-06-08         1971 Thor  <NA>    P70-1   US    
## #  with 5,716 more rows, and 21 more variables: state_code.x <chr>,
## #   category <chr>, agency_type.x <chr>, count <dbl>, ucode <chr>,
## #   state_code.y <chr>, type.y <chr>, class <chr>, tstart <chr>, tstop <chr>,
## #   short_name <chr>, name <chr>, location <chr>, longitude <chr>,
## #   latitude <chr>, error <chr>, parent <chr>, short_english_name <chr>,
## #   english_name <chr>, unicode_name <chr>, agency_type.y <chr>

Retain matching phase codes

# Join to retain only observations with matches
launches_agencies <- inner_join(launches, agencies, by = "agency")

# Print launches_agencies
launches_agencies

## # A tibble: 950 x 29
##    tag       JD launch_date launch_year type.x variant mission agency
##    <chr>  <dbl> <date>            <dbl> <chr>  <chr>   <chr>   <chr> 
##  1 1984 2.45e6 1984-11-10         1984 Arian <NA>    Spacen AE    
##  2 1984 2.45e6 1984-05-23         1984 Arian <NA>    Spacen AE    
##  3 1984 2.45e6 1984-08-04         1984 Arian <NA>    ECS 2   AE    
##  4 1985 2.45e6 1985-02-08         1985 Arian <NA>    Arabsa AE    
##  5 1985 2.45e6 1985-05-08         1985 Arian <NA>    Gstar  AE    
##  6 1985 2.45e6 1985-07-02         1985 Arian <NA>    Giotto  AE    
##  7 1986 2.45e6 1986-02-22         1986 Arian <NA>    SPOT    AE    
##  8 1986 2.45e6 1986-03-28         1986 Arian <NA>    Gstar 2 AE    
##  9 1987 2.45e6 1987-09-16         1987 Arian <NA>    Aussat AE    
## 10 1987 2.45e6 1987-11-21         1987 Arian <NA>    TV-SAT  AE    
## #  with 940 more rows, and 21 more variables: state_code.x <chr>,
## #   category <chr>, agency_type.x <chr>, count <dbl>, ucode <chr>,
## #   state_code.y <chr>, type.y <chr>, class <chr>, tstart <chr>, tstop <chr>,
## #   short_name <chr>, name <chr>, location <chr>, longitude <chr>,
## #   latitude <chr>, error <chr>, parent <chr>, short_english_name <chr>,
## #   english_name <chr>, unicode_name <chr>, agency_type.y <chr>
…
